[
  {
    "line": 1,
    "elements": [
      {
        "BDD_TESTRUN_UUID": "9a8cb750-02e6-4a89-9425-ec0624811c11",
        "line": 3,
        "name": "User want to login using data",
        "description": "",
        "id": "logindata-feature;user-want-to-login-using-data",
        "type": "scenario",
        "keyword": "Scenario",
        "steps": [
          {
            "result": {
              "duration": 1111700200,
              "status": "passed"
            },
            "line": 5,
            "name": "User navigates to login data page",
            "match": {
              "location": "logindatastep.navigateToLoginPage()"
            },
            "keyword": "Given ",
            "BDD_STEP_UUID": "7efe24ff-aa8f-4328-86e6-99f575e5b7c7"
          },
          {
            "result": {
              "duration": 11275660200,
              "status": "passed"
            },
            "line": 6,
            "name": "user enter data username and password",
            "match": {
              "location": "logindatastep.user_enter_data_username_and_password()"
            },
            "keyword": "When ",
            "BDD_STEP_UUID": "56c9b6e6-58b2-4172-9a0c-655a335507e5"
          },
          {
            "result": {
              "duration": 1545719800,
              "status": "passed"
            },
            "line": 7,
            "name": "user is navigated data on homepage",
            "match": {
              "location": "logindatastep.user_is_navigated_on_homepage()"
            },
            "keyword": "Then ",
            "BDD_STEP_UUID": "c4f7f0c9-14c4-4005-a6cd-2cfaef3ffa59"
          }
        ]
      }
    ],
    "name": "Logindata Feature",
    "description": "",
    "id": "logindata-feature",
    "keyword": "Feature",
    "uri": "C:/Users/wrkng/Desktop/Platinum challange/chalenge-web-kel3/Include/features/logindata.feature",
    "tags": []
  }
]