[
  {
    "line": 2,
    "elements": [
      {
        "BDD_TESTRUN_UUID": "9fc1d787-179d-482b-91f8-3d6fa3afd17d",
        "line": 4,
        "name": "the user want to edit their product detail",
        "description": "",
        "id": "edit-product;the-user-want-to-edit-their-product-detail",
        "type": "scenario",
        "keyword": "Scenario",
        "steps": [
          {
            "result": {
              "duration": 864991600,
              "status": "passed"
            },
            "line": 5,
            "name": "the user click the product that want to be edit",
            "match": {
              "location": "editproduct.click_product()"
            },
            "keyword": "Given ",
            "BDD_STEP_UUID": "a69b2f9a-8c86-439b-b567-f572d39f2449"
          },
          {
            "result": {
              "duration": 749326300,
              "status": "passed"
            },
            "line": 6,
            "name": "the user click edit button",
            "match": {
              "location": "editproduct.click_edit()"
            },
            "keyword": "When ",
            "BDD_STEP_UUID": "45610a29-3b44-49d3-9f73-757ff5f2c979"
          },
          {
            "result": {
              "duration": 4363043100,
              "status": "passed"
            },
            "line": 7,
            "name": "the user edit product detail",
            "match": {
              "location": "editproduct.user_edit_product_detail()"
            },
            "keyword": "And ",
            "BDD_STEP_UUID": "8f807a07-3ea9-4f7e-bffb-049c561100c3"
          },
          {
            "result": {
              "duration": 555116800,
              "status": "passed"
            },
            "line": 8,
            "name": "the user click on terbitkan button",
            "match": {
              "location": "editproduct.click_edit_terbitkan()"
            },
            "keyword": "Then ",
            "BDD_STEP_UUID": "0b953a52-ab0f-4752-8f76-af78feb95f3a"
          }
        ]
      }
    ],
    "name": "Edit product",
    "description": "",
    "id": "edit-product",
    "keyword": "Feature",
    "uri": "C:/Users/wrkng/Desktop/Platinum challange/chalenge-web-kel3/Include/features/editproduct.feature",
    "tags": []
  }
]