[
  {
    "line": 2,
    "elements": [
      {
        "line": 5,
        "name": "the user want to open my product list page",
        "description": "",
        "id": "semua-produk;the-user-want-to-open-my-product-list-page",
        "type": "scenario",
        "keyword": "Scenario",
        "steps": [
          {
            "result": {
              "duration": 351604800,
              "status": "passed"
            },
            "line": 6,
            "name": "the user is navigated to homepage to see all my product",
            "match": {
              "location": "semuaproduk.user_is_navigated_to_homepage_to_see_all_my_product()"
            },
            "keyword": "Given "
          },
          {
            "result": {
              "duration": 429186100,
              "status": "passed"
            },
            "line": 7,
            "name": "the user click my product list icon button",
            "match": {
              "location": "semuaproduk.click_my_product_list_icon_button()"
            },
            "keyword": "When "
          },
          {
            "result": {
              "duration": 31406451000,
              "status": "passed"
            },
            "line": 8,
            "name": "the user is navigated to my product list page to see all my product",
            "match": {
              "location": "semuaproduk.user_is_navigated_to_product_list_to_see_all_my_product()"
            },
            "keyword": "Then "
          }
        ]
      }
    ],
    "name": "semua produk",
    "description": "",
    "id": "semua-produk",
    "keyword": "Feature",
    "uri": "C:/Users/wrkng/Desktop/Platinum challange/chalenge-web-kel3/Include/features/semuaproduk.feature",
    "tags": []
  }
]