[
  {
    "line": 1,
    "elements": [
      {
        "BDD_TESTRUN_UUID": "20baf19f-d068-4da8-84b4-fdb4e9840341",
        "line": 3,
        "name": "User want to login using data",
        "description": "",
        "id": "logindata-feature;user-want-to-login-using-data",
        "type": "scenario",
        "keyword": "Scenario",
        "steps": [
          {
            "result": {
              "duration": 1220933900,
              "status": "passed"
            },
            "line": 5,
            "name": "User navigates to login data page",
            "match": {
              "location": "logindatastep.navigateToLoginPage()"
            },
            "keyword": "Given ",
            "BDD_STEP_UUID": "38b3dfb8-7a5c-4860-a4b8-f27b6bfa9292"
          },
          {
            "result": {
              "duration": 11263246100,
              "status": "passed"
            },
            "line": 6,
            "name": "user enter data username and password",
            "match": {
              "location": "logindatastep.user_enter_data_username_and_password()"
            },
            "keyword": "When ",
            "BDD_STEP_UUID": "e87457b4-74cd-4b9a-8119-82468cd30cd9"
          },
          {
            "result": {
              "duration": 1594391900,
              "status": "passed"
            },
            "line": 7,
            "name": "user is navigated data on homepage",
            "match": {
              "location": "logindatastep.user_is_navigated_on_homepage()"
            },
            "keyword": "Then ",
            "BDD_STEP_UUID": "b54a8acd-b808-4ab2-bbd0-992d20ce62c9"
          }
        ]
      }
    ],
    "name": "Logindata Feature",
    "description": "",
    "id": "logindata-feature",
    "keyword": "Feature",
    "uri": "C:/Users/wrkng/Desktop/Platinum challange/chalenge-web-kel3/Include/features/logindata.feature",
    "tags": []
  }
]