[
  {
    "line": 1,
    "elements": [
      {
        "line": 3,
        "name": "User want to login using data",
        "description": "",
        "id": "logindata-feature;user-want-to-login-using-data",
        "type": "scenario",
        "keyword": "Scenario",
        "steps": [
          {
            "result": {
              "duration": 910513000,
              "status": "passed"
            },
            "line": 5,
            "name": "User navigates to login data page",
            "match": {
              "location": "logindatastep.navigateToLoginPage()"
            },
            "keyword": "Given "
          },
          {
            "result": {
              "duration": 9504280700,
              "status": "passed"
            },
            "line": 6,
            "name": "user enter data username and password",
            "match": {
              "location": "logindatastep.user_enter_data_username_and_password()"
            },
            "keyword": "When "
          },
          {
            "result": {
              "duration": 1543127000,
              "status": "passed"
            },
            "line": 7,
            "name": "user is navigated data on homepage",
            "match": {
              "location": "logindatastep.user_is_navigated_on_homepage()"
            },
            "keyword": "Then "
          }
        ]
      }
    ],
    "name": "Logindata Feature",
    "description": "",
    "id": "logindata-feature",
    "keyword": "Feature",
    "uri": "C:/Users/wrkng/Desktop/Platinum challange/chalenge-web-kel3/Include/features/logindata.feature",
    "tags": []
  }
]