[
  {
    "line": 1,
    "elements": [
      {
        "BDD_TESTRUN_UUID": "02aa5ad9-7e24-4034-9e76-2a45112b0a35",
        "line": 3,
        "name": "User want to login using data",
        "description": "",
        "id": "logindata-feature;user-want-to-login-using-data",
        "type": "scenario",
        "keyword": "Scenario",
        "steps": [
          {
            "result": {
              "duration": 912809400,
              "status": "passed"
            },
            "line": 5,
            "name": "User navigates to login data page",
            "match": {
              "location": "logindatastep.navigateToLoginPage()"
            },
            "keyword": "Given ",
            "BDD_STEP_UUID": "0c9d2ffa-209a-446c-8958-a1012173fcbf"
          },
          {
            "result": {
              "duration": 10568479700,
              "status": "passed"
            },
            "line": 6,
            "name": "user enter data username and password",
            "match": {
              "location": "logindatastep.user_enter_data_username_and_password()"
            },
            "keyword": "When ",
            "BDD_STEP_UUID": "7eb41787-bea3-4519-8eae-47bef2c9f8a1"
          },
          {
            "result": {
              "duration": 1554450700,
              "status": "passed"
            },
            "line": 7,
            "name": "user is navigated data on homepage",
            "match": {
              "location": "logindatastep.user_is_navigated_on_homepage()"
            },
            "keyword": "Then ",
            "BDD_STEP_UUID": "3d4b8a74-9884-4324-93de-94e8643eb9e4"
          }
        ]
      }
    ],
    "name": "Logindata Feature",
    "description": "",
    "id": "logindata-feature",
    "keyword": "Feature",
    "uri": "C:/Users/wrkng/Desktop/Platinum challange/chalenge-web-kel3/Include/features/logindata.feature",
    "tags": []
  }
]